{
    "name": "short-group-result-template",
    "recipe": "xlsx",
    "shortid": "SkxVyLxgmD",
    "engine": "handlebars",
    "chrome": {
        "printBackground": true
    },
    "creationDate": {
        "$$date": 1598191321083
    },
    "modificationDate": {
        "$$date": 1606655630980
    },
    "data": {
        "shortid": "ByOFkaU2B"
    },
    "xlsxTemplate": null,
    "scripts": [],
    "_id": "J87FfK91eYhopFlF",
    "$entitySet": "templates"
}